<?xml version="1.0" encoding="utf-8"?>
<!-- Generator: Adobe Illustrator 23.0.1, SVG Export Plug-In . SVG Version: 6.00 Build 0)  -->
<svg version="1.1" id="Layer_1" xmlns="http://www.w3.org/2000/svg" xmlns:xlink="http://www.w3.org/1999/xlink" x="0px" y="0px"
	 viewBox="0 0 270 48" style="enable-background:new 0 0 270 48;" xml:space="preserve">
<style type="text/css">
	.st0{fill:#FFFFFF;}
</style>
<path class="st0" d="M41.6,15.8c-1-0.5-1.8-0.9-1.9-1c-0.2,0.1-1.6,0.9-3,1.6c-0.6,5.4-1.5,13.7-1.5,13.7l4.8,0.5
	C40,30.6,41,21,41.6,15.8z M69.2,36.6c-0.5-0.1-1-0.2-1.5-0.4c-0.1,0-0.2-0.1-0.4-0.1c-0.4-0.1-0.8-0.2-1.2-0.2
	c-0.1,0-0.3-0.1-0.4-0.1c-0.4-0.1-0.8-0.2-1.1-0.2c-0.1,0-0.3,0-0.4-0.1c-0.4-0.1-0.8-0.1-1.1-0.2c0,0-0.1,0-0.1,0c0,0,0,0,0,0
	c-2.7-0.5-5.3-0.8-7.8-1.1c0,0,0,0,0,0c-0.1,0-0.1,0-0.2,0c-0.2,0-0.5,0-0.7-0.1c-0.2,0-0.4,0-0.6-0.1c-0.2,0-0.5,0-0.7-0.1
	c-0.2,0-0.4,0-0.6-0.1c-0.2,0-0.4,0-0.6,0c-0.2,0-0.5,0-0.7,0c-0.2,0-0.4,0-0.6,0c-0.3,0-0.6,0-0.9,0c-0.1,0-0.3,0-0.4,0
	c-0.4,0-0.8,0-1.2-0.1c-0.1,0-0.3,0-0.4,0c-0.3,0-0.5,0-0.8,0c0,0-0.1,0-0.1,0v0c-0.3,0-0.6,0-0.8,0c0,0-0.1,0-0.1,0
	c-1,0-2.1,0-3.1,0c-0.1,0.4-0.2,0.7-0.3,1.1c-0.1,0.4-0.1,0.7-0.1,1.1c1.6,0.1,3.1,0.2,4.7,0.3c0.2,0,0.4,0,0.7,0.1
	c0.3,0,0.6,0.1,0.9,0.1c0.2,0,0.4,0,0.6,0.1c0.5,0.1,1,0.1,1.5,0.2c0,0,0,0,0.1,0c0.5,0.1,1,0.1,1.6,0.2c0.1,0,0.3,0,0.4,0.1
	c0.4,0.1,0.8,0.1,1.2,0.2c0.1,0,0.3,0,0.4,0.1c0.4,0.1,0.9,0.1,1.3,0.2c2.4,0.4,4.8,1,7.2,1.6v0c1.8,0.5,3.7,1.1,5.5,1.7
	C72.6,41.8,72,37.4,69.2,36.6z M37.1,35.8c0-0.6,0.1-1.3,0.2-1.9c-22.5,1.3-37,9.1-37,9.1C9.7,39,22.8,35.9,37.1,35.8z M64.3,13.2
	c-4,0-7.4,2.6-8.6,6.2c-0.2-1.1-0.6-2.1-1.2-3.1c0.2-0.2,1.4-1.8,1.4-1.8L52,11.6l-0.1,0.2c0,0-1.3,1.7-1.4,1.9
	c-0.5-0.1-1-0.2-1.5-0.2c-1.5,0-2.9,0.5-4.1,1.4l-0.7-4.3l4.3-4.2l-5.9-0.9l-2.6-5.3l-2.6,5.3l-5.9,0.9l4.3,4.2L34.8,15
	c-1.3-2.8-4.4-4.5-7.5-3.8c-3.7,0.7-6.1,4.4-5.3,8c0,0.2,0.1,0.4,0.2,0.7l0,0.2c-1.3-3-4-5.3-7.3-6.2l0,0l-0.2-0.1
	c-0.5-0.1-0.9-0.4-1.2-0.9c-0.3-0.5-0.4-1-0.2-1.5c0.1-0.5,0.4-0.9,0.9-1.2c0.5-0.3,1-0.4,1.5-0.2c1.1,0.3,1.7,1.3,1.4,2.4L17,12.5
	l4.7,1.2l0.1-0.2c0.4-1.8,0.2-3.6-0.8-5.2c-0.9-1.6-2.4-2.7-4.2-3.1C15,4.8,13.1,5,11.6,6C10,6.9,8.9,8.4,8.5,10.2
	c-0.3,1.3-0.3,2.5,0.1,3.7C5,15.1,2,18,1,22c-1.5,6,2.2,12.1,8.2,13.6c6,1.5,12.1-2.2,13.6-8.2c0.2-0.8,0.3-1.6,0.3-2.4l1.4,7l4.8-1
	L28,24.7c0.6,0.1,1.3,0,2-0.1c1.8-0.4,3.3-1.4,4.3-2.9c1-1.5,1.4-3.3,1-5.1c0-0.1-0.1-0.2-0.1-0.4l4.6-2.4l4,2.1
	c-1.1,1.2-1.7,2.8-1.7,4.5c0,0,0,0,0,0.1c0,2.4,1.3,4.5,3.3,5.7c-0.7,0.3-1.3,0.7-1.9,1.1c-1,0.7-1.8,1.5-2.5,2.4h0c0,0,0,0,0,0
	c-0.1,0.1-0.2,0.2-0.2,0.3c0,0,0,0.1-0.1,0.1c-0.1,0.1-0.1,0.2-0.2,0.3c0,0-0.1,0.1-0.1,0.1c0,0.1-0.1,0.1-0.1,0.2
	c0,0.1-0.1,0.1-0.1,0.2c0,0.1-0.1,0.1-0.1,0.2c0,0.1-0.1,0.1-0.1,0.2c0,0.1-0.1,0.1-0.1,0.2c0,0.1-0.1,0.1-0.1,0.2
	c0,0.1-0.1,0.2-0.1,0.2c-0.6,1.4-0.9,3-0.9,4.5c0,0.4,0,0.8,0.1,1.2h0c0,0,0,0,0,0c0,0.1,0,0.2,0,0.3c0,0,0,0.1,0,0.1
	c0,0.1,0,0.2,0,0.2c0,0.1,0,0.1,0,0.2c0,0.1,0,0.1,0,0.2c0,0.1,0.1,0.3,0.1,0.4c0,0,0,0.1,0,0.1c0,0.1,0,0.2,0.1,0.3
	c0,0,0,0.1,0,0.1c0,0.1,0.1,0.2,0.1,0.3c0,0,0,0,0,0.1h0c0.3,1.1,0.9,2.1,1.5,3.1c3.6,5,10.6,6.2,15.7,2.6c1.9-1.3,3.2-3.2,4-5.3
	c-1.2-0.3-2.3-0.6-3.5-0.8c-0.1,0.2-0.1,0.3-0.2,0.5c-1.3,2.9-4.3,5-7.5,5.3c-2.8,0.3-5.3-0.9-7.1-3.4c-0.5-0.6-0.8-1.3-1.1-2.1
	c0,0,0,0,0,0c-0.1-0.2-0.1-0.3-0.2-0.5c0,0,0-0.1,0-0.1c0-0.1-0.1-0.3-0.1-0.4c0,0,0-0.1,0-0.1c0-0.2-0.1-0.3-0.1-0.5c0,0,0,0,0-0.1
	c0-0.2-0.1-0.4-0.1-0.6c0,0,0,0,0,0c-0.1-0.5-0.1-0.9-0.1-1.4c0-0.5,0-1.1,0.1-1.6c0.1-0.9,0.4-1.8,0.8-2.6c0.1-0.2,0.2-0.3,0.2-0.5
	c0,0,0,0,0-0.1c0.1-0.1,0.2-0.3,0.2-0.4c0,0,0-0.1,0.1-0.1c0.1-0.1,0.2-0.3,0.2-0.4c0,0,0-0.1,0.1-0.1c0.5-0.8,1.1-1.4,1.8-1.9
	c0.2,0.3,2,2.9,2,2.9l0.2-0.1c1.7-1.2,3.8-1.8,5.7-1.5c1.6,0.3,3,1.1,3.9,2.4c0.1,0.2,0.2,0.3,0.3,0.5c1.5,0.2,3,0.4,4.5,0.6
	c-0.4-1.2-0.9-2.4-1.7-3.4c-0.1-0.1-0.1-0.2-0.2-0.2c1.5,1.1,3.3,1.7,5.3,1.7c5,0,9-4.1,9-9C73.3,17.3,69.3,13.2,64.3,13.2z
	 M19,26.4c-1.3,5.4-6.1,6.8-10.1,5.8c-3.9-1-7.5-4.5-6.2-9.8c0.9-3.6,3.6-6,6.5-7c0,0,0,0,0,0c0.9,1.5,2.3,2.6,4,3c0,0,0,0,0,0
	l0.2,0.1c1.9,0.5,3.5,1.5,4.5,2.9c0.8,1.1,1.2,2.3,1.2,3.6C19.1,25.4,19.1,25.9,19,26.4z M30.3,18.9c-0.3,0.4-0.7,0.7-1.3,0.8
	c-1,0.2-1.9-0.3-2.2-1.2l-0.1-0.7c0-0.4,0.1-0.8,0.3-1.1c0.3-0.4,0.7-0.7,1.3-0.8c0.5-0.1,1,0,1.5,0.3c0.4,0.3,0.7,0.7,0.8,1.3
	C30.7,18,30.6,18.5,30.3,18.9z M50.4,21.7c-0.4,0.4-0.9,0.6-1.4,0.6c-1.1,0-2-0.9-2-2c0-0.5,0.2-1,0.6-1.4c0.4-0.4,0.9-0.6,1.4-0.6
	c0.5,0,1,0.2,1.4,0.6c0.4,0.4,0.6,0.9,0.6,1.4C51,20.8,50.8,21.3,50.4,21.7z M53.3,25.6c0.9-0.7,1.6-1.7,2-2.7
	c0.1,1.7,0.7,3.3,1.6,4.6C55.9,26.6,54.6,26,53.3,25.6z M64.3,26.4c-2.3,0-4.2-1.9-4.2-4.2c0-1.1,0.4-2.2,1.2-3
	c0.8-0.8,1.8-1.2,3-1.2c1.1,0,2.2,0.4,3,1.2c0.8,0.8,1.2,1.8,1.2,3C68.5,24.6,66.6,26.4,64.3,26.4z M73.6,13.1
	c-0.2,0-0.3-0.3-0.5-0.4c0.2,0,0.4-0.2,0.4-0.5c0-0.3-0.2-0.5-0.5-0.5h-0.7v1.7h0.2v-0.6h0.2c0.2,0.1,0.4,0.6,0.7,0.6
	c0.1,0,0.2,0,0.2-0.1l0-0.2C73.7,13.1,73.7,13.1,73.6,13.1z M72.7,12.5v-0.6H73c0.2,0,0.3,0.1,0.3,0.3c0,0.2-0.1,0.3-0.3,0.3H72.7z
	 M73,10.5c-1.1,0-2,0.9-2,2c0,1.1,0.9,2,2,2c1.1,0,2-0.9,2-2C75,11.4,74.1,10.5,73,10.5z M73,14.4c-1,0-1.8-0.8-1.8-1.8
	c0-1,0.8-1.8,1.8-1.8c1,0,1.8,0.8,1.8,1.8C74.8,13.5,74,14.4,73,14.4z"/>
</svg>
